<?xml version="1.0" encoding="UTF-8" standalone="no"?>
<!-- Created with Inkscape (http://www.inkscape.org/) -->

<svg
   xmlns:dc="http://purl.org/dc/elements/1.1/"
   xmlns:cc="http://creativecommons.org/ns#"
   xmlns:rdf="http://www.w3.org/1999/02/22-rdf-syntax-ns#"
   xmlns:svg="http://www.w3.org/2000/svg"
   xmlns="http://www.w3.org/2000/svg"
   xmlns:inkscape="http://www.inkscape.org/namespaces/inkscape"
   version="1.1"
   width="60"
   height="40"
   viewBox="0 0 60 40"
   id="svg2"
   xml:space="preserve"><metadata
     id="metadata8"><rdf:RDF><cc:Work
         rdf:about=""><dc:format>image/svg+xml</dc:format><dc:type
           rdf:resource="http://purl.org/dc/dcmitype/StillImage" /></cc:Work></rdf:RDF></metadata><defs
     id="defs6" /><g
     transform="matrix(1.25,0,0,-1.25,0,51.4125)"
     id="g10"><g
       transform="scale(0.1,0.1)"
       id="g12"><path
         d="m 293.32,332.676 51.242,0 c 12.754,0 12.59,-6.961 12.477,-17.051 -0.101,-9.445 -1.555,-23.418 -5.648,-42.586 -4.004,-18.84 -8.106,-32.734 -12.067,-42.578 -2.953,-7.383 -5.804,-12.484 -8.242,-15.781 -3.777,-4.981 -5.906,-6.028 -8.355,-6.965 -2.454,-0.879 -6.227,-1.211 -11.989,-1.16 l -216.613,0 c -12.4453,0 -15.0391,2.91 -15.0391,11.804 0.0157,5.676 0.9375,13.868 3.2305,24.649 2.4531,11.574 4.082,14.199 7.0195,20.332 4.4922,9.289 8.4571,12.707 12.1171,14.738 3.703,2.012 8.504,2.906 15.52,2.906 l 67.238,0 7.016,33.02 -74.254,0 c -6.375,0 -13.274,-0.488 -20.4418,-2.508 -5.3593,-1.535 -10.8437,-3.976 -15.9414,-7.562 -7.6796,-5.379 -14.2109,-13.164 -19.3906,-23.004 -5.1836,-9.914 -7.957,-15.977 -11.1758,-31.055 -2.5898,-12.246 -3.9257,-22.445 -3.9453,-31.516 0.0196,-7.519 0.9336,-14.343 3.4063,-20.742 1.8281,-4.758 4.6679,-9.219 8.289,-12.734 5.4532,-5.363 12.1602,-8.211 18.2813,-9.617 6.1914,-1.438 12.1484,-1.711 18.0703,-1.743 27.937,0.012 188.246,0.012 216.613,0 5.477,0.039 12.18,0.024 19.832,2.075 5.7,1.543 11.758,4.429 17.16,8.882 8.161,6.692 14.657,16.223 20.372,29.223 5.707,13.055 10.765,29.871 15.586,52.477 4.371,20.636 6.351,36.527 6.371,49.445 -0.02,9.434 -1.043,17.363 -3.504,24.473 -1.844,5.285 -4.621,10.117 -8.282,14.011 -5.492,5.918 -12.589,9.016 -18.488,10.278 -5.976,1.304 -11.113,1.289 -15.223,1.304 l -77.98,0 -29.891,-140.523 33.743,0 22.886,107.508"
         inkscape:connector-curvature="0"
         id="path14"
         style="fill:#173a79;fill-opacity:1;fill-rule:nonzero;stroke:none" /><path
         d="m 425.613,367.746 c -5.168,10.469 -12.16,18.856 -19.992,25.098 -11.793,9.39 -25.016,13.906 -36.949,16.16 -11.953,2.246 -22.91,2.324 -30.875,2.336 l -107.16,0 -39.602,-186.172 33.75,0 32.578,153.164 c 20.352,0 59.024,-0.012 80.434,-0.012 6.719,0.012 14.383,-0.117 21.941,-1.277 5.664,-0.863 11.184,-2.285 16.141,-4.504 7.433,-3.379 13.527,-8.059 18.539,-16.445 4.945,-8.426 8.816,-21.297 8.816,-41.258 0.012,-11.633 -1.328,-25.598 -4.464,-42.152 -5.665,-29.93 -12.688,-51.903 -20.227,-67.664 -5.648,-11.836 -11.559,-20.157 -17.391,-26.114 -8.781,-8.879 -17.32,-12.929 -27.367,-15.383 -10.035,-2.41 -21.617,-2.664 -34.301,-2.632 l -211.4528,0 c -13.9179,-0.032 -28.0703,3.738 -37.8007,11.816 -4.9258,4.051 -9.0196,9.141 -12.1055,16.172 -3.0625,7.012 -5.1055,16.113 -5.1055,28.035 0,7.629 0.8321,16.387 2.7813,26.348 4.1719,21.258 8.4609,31.465 14.6015,43.613 9.3086,18.262 19.4649,27.402 29.7071,32.832 10.2539,5.352 21.4066,6.981 32.8986,6.981 l 80.914,0 7.016,33.031 -87.93,0 c -9.707,0 -20.4299,-0.918 -31.5158,-4.102 C 64.8672,350.918 47.6367,340.578 33.793,322.414 19.8828,304.266 10.3516,284.922 3.41406,249.621 1.10547,237.844 0,226.973 0,216.914 c -0.0117188,-15.691 2.73438,-29.5 7.87109,-41.262 7.66411,-17.703 20.86331,-30.23 35.35551,-37.586 14.5312,-7.414 30.2031,-10.168 44.8046,-10.183 l 211.4528,0 c 11.457,0.015 23.907,0.047 36.965,2.469 9.762,1.828 19.91,5.086 29.649,10.812 14.687,8.535 27.925,22.438 38.707,42.645 10.82,20.246 19.57,46.882 26.394,82.734 3.449,18.184 5.055,34.148 5.055,48.293 0.016,21.48 -3.719,38.914 -10.641,52.91"
         inkscape:connector-curvature="0"
         id="path16"
         style="fill:#173a79;fill-opacity:1;fill-rule:nonzero;stroke:none" /><path
         d="m 214.617,411.34 -145.285,0 -7.0273,-33.008 113.0663,0 c 34.707,0 39.246,33.008 39.246,33.008"
         inkscape:connector-curvature="0"
         id="path18"
         style="fill:#173a79;fill-opacity:1;fill-rule:nonzero;stroke:none" />
         
         </g></g></svg>